…
### 0.1.1 Import Data

Seed set to `123` for replication. Import the
`1.1.darkwoods_seedlings.xls` dataset. This includes seedlings and
covariate values previously processed, classified and sampled from stem
locations of seedlings using ArcGIS environment.

``` r
set.seed(123)
darkwoods_seedlings_data <- readxl::read_excel("1.1.darkwoods_seedlings.xls")
darkwoods_seedlings_data
```

    # A tibble: 3,912 × 61
       data_point       x        y geodetic_datum plot123 plot1 plot2 plot3 bec_zone
            <dbl>   <dbl>    <dbl> <chr>            <dbl> <dbl> <dbl> <dbl>    <dbl>
     1          1 524355. 5446972. wgs84utm11n          3     0     0     1        2
     2          2 524350. 5446986. wgs84utm11n          3     0     0     1        2
     3          3 524350. 5446981. wgs84utm11n          3     0     0     1        2
     4          4 524350. 5446954. wgs84utm11n          3     0     0     1        2
     5          5 524202. 5447057. wgs84utm11n          3     0     0     1        2
     6          6 524185. 5447071. wgs84utm11n          3     0     0     1        2
     7          7 524215. 5447056. wgs84utm11n          3     0     0     1        2
     8          8 524197. 5447070. wgs84utm11n          3     0     0     1        2
     9          9 524197. 5447065. wgs84utm11n          3     0     0     1        2
    10         10 524225. 5447060. wgs84utm11n          3     0     0     1        2
    # ℹ 3,902 more rows
    # ℹ 52 more variables: bec_ichdw1 <dbl>, bec_ichmw4 <dbl>, bec_essfmw4 <dbl>,
    #   density <dbl>, intensity <dbl>, elevation_asl <dbl>, slope <dbl>,
    #   rix <dbl>, aspect <dbl>, precip <dbl>, twi <dbl>, wind <dbl>,
    #   species <dbl>, larix_spp <dbl>, pseudo_m <dbl>, picea_eng <dbl>,
    #   pinus_con <dbl>, pinus_pond <dbl>, pinus_albi <dbl>, thuja_plic <dbl>,
    #   tsuga_hete <dbl>, height_cm <dbl>, distance_m <dbl>, mpb_2005 <dbl>, …
…
``` r
requirements_II = install.packages(c("spdep", "gstat", "rgdal",
    "maptools", "raster", "spatstat", "GISTools", "rgeos", "sp",
    "rpanel", "ncf", "spatial", "spatstat.data", "spatstat.local",
    "dplyr", "RColorBrewer", "jsonlite", "plotly", "RSQLite",
    "tidyverse", "useful", "xgboost"), dependencies = TRUE)
requirements_II  # settings on 'warnings=FALSE'
```

``` r
darkwoods_seedlings_tree_distance = read_excel("1.2.darkwoods_seedlings_distance.xls")
darkwoods_seedlings_tree_distance
```

    # A tibble: 3,866 × 3
             x        y distance_m
         <dbl>    <dbl>      <dbl>
     1 524355. 5446972.       16.6
     2 524350. 5446986.       14.2
     3 524350. 5446981.       15.5
     4 524350. 5446954.       38.3
     5 524202. 5447057.       29.2
     6 524185. 5447071.       31.7
     7 524215. 5447056.       26.8
     8 524197. 5447070.       29.0
     9 524197. 5447065.       29.7
    10 524225. 5447060.       24.3
    # ℹ 3,856 more rows
…
